Question: Show the value of x after each of the following statem ents is perform ed:
a. x = fabs ( 7.5 )
b. x = floor ( 7.5 )
c. x = fabs ( 0.0 )
d. x = ceil ( 0.0 )
e. x = fabs ( -6.4 )
f. x = ceil ( -6.4 )
g. x = ceil ( -fabs ( -8 + floor( -5.5 ) ) )

Answer:
a. 7.5
b. 7
c. 0
d. 0
e. 6.4
f.-6
g.-14
